<svg width="18" height="14" viewBox="0 0 18 14" fill="none" xmlns="http://www.w3.org/2000/svg">
<path d="M8.98141 2.37656L9.3118 2.86208L9.64261 2.37684C10.9369 0.478303 12.7551 0.0913316 14.2369 0.632853C15.7377 1.18134 16.9458 2.70046 16.9458 4.74398C16.9458 5.44961 16.5507 6.31706 15.864 7.27192C15.1867 8.21367 14.2685 9.18244 13.3164 10.08C12.3661 10.9757 11.3923 11.7909 10.6097 12.4266C10.3286 12.6549 10.0736 12.859 9.8524 13.0359C9.76529 13.1056 9.68344 13.1711 9.60732 13.2322C9.49783 13.3201 9.39728 13.4013 9.30974 13.4733C9.21764 13.3996 9.11155 13.3169 8.99635 13.2278C8.88637 13.1427 8.76586 13.0501 8.63534 12.9498C8.43092 12.7926 8.20197 12.6167 7.95059 12.4213C7.13227 11.7851 6.11089 10.9696 5.11296 10.0734C4.11301 9.17543 3.1477 8.20625 2.43534 7.26421C1.71209 6.30775 1.29929 5.44315 1.29929 4.74398C1.29929 2.69938 2.58745 1.1736 4.19227 0.622834C5.78311 0.0768684 7.69528 0.486509 8.98141 2.37656Z" stroke="#00C65E" stroke-width="0.8"/>
</svg>
